{
    "type": "record",
    "name": "actions_schema",
    "namespace": "action.schema.avro",
    "fields": [
        {
            "name": "producer",
            "type": "string"
        },
        {
            "name": "message",
            "type": "string"
        }
    ]
}
