{
    "type": "record",
    "name": "product_schema",
    "namespace": "product.schema.avro",
    "fields": [
        {
            "name": "producer",
            "type": "string"
        },
        {
            "name": "message",
            "type": {
                "type": "record",
                "name": "products",
                "fields": [
                    {
                        "name": "ean",
                        "type": "string"
                    },
                    {
                        "name": "status",
                        "type": "string"
                    },
                    {
                        "name": "defaultLc",
                        "type": "string"
                    },
                    {
                        "name": "region",
                        "type": {
                            "name": "FR",
                            "type": "record",
                            "fields": [
                                {
                                    "name": "FR",
                                    "type": {
                                        "name": "prueba",
                                        "type": "record",
                                        "fields": [
                                            {
                                                "name": "scans",
                                                "type": "int"
                                            },
                                            {
                                                "name": "tags",
                                                "type": {
                                                    "type": "array",
                                                    "items": {
                                                        "type": "map",
                                                        "values": "string"
                                                    },
                                                    "default": []
                                                }
                                            },
                                            {
                                                "name": "inStores",
                                                "type": {
                                                    "type": "array",
                                                    "items": {
                                                        "type": "map",
                                                        "values": "string"
                                                    },
                                                    "default": []
                                                }
                                            }
                                        ]
                                    }
                                }
                            ]
                        }
                    },
                    {
                        "name": "score",
                        "type": [
                            "int",
                            "string"
                        ]
                    },
                    {
                        "name": "source",
                        "type": {
                            "type": "array",
                            "items": {
                                "name": "product_source",
                                "type": "record",
                                "fields": [
                                    {
                                        "name": "id",
                                        "type": "string"
                                    },
                                    {
                                        "name": "src",
                                        "type": "string"
                                    },
                                    {
                                        "name": "lc",
                                        "type": "string"
                                    },
                                    {
                                        "name": "region",
                                        "type": "string"
                                    },
                                    {
                                        "name": "updated",
                                        "type": [
                                            "string",
                                            {
                                                "type": "int",
                                                "logicalType": "date"
                                            }
                                        ]
                                    },
                                    {
                                        "name": "date",
                                        "type": [
                                            "string",
                                            {
                                                "type": "int",
                                                "logicalType": "date"
                                            }
                                        ]
                                    },
                                    {
                                        "name": "product",
                                        "type": {
                                            "name": "source_product",
                                            "type": "record",
                                            "fields": [
                                                {
                                                    "name": "manufacturer",
                                                    "type": {
                                                        "type": "map",
                                                        "values": "string"
                                                    }
                                                },
                                                {
                                                    "name": "lifeCycle",
                                                    "type": {
                                                        "type": "map",
                                                        "values": [
                                                            "string",
                                                            "null"
                                                        ]
                                                    }
                                                },
                                                {
                                                    "name": "additives",
                                                    "type": {
                                                        "type": "array",
                                                        "items": "string",
                                                        "default": []
                                                    }
                                                },
                                                {
                                                    "name": "name",
                                                    "type": [
                                                        "string",
                                                        "null"
                                                    ]
                                                },
                                                {
                                                    "name": "description",
                                                    "type": [
                                                        "string",
                                                        "null"
                                                    ]
                                                },
                                                {
                                                    "name": "ingredients",
                                                    "type": [
                                                        "string",
                                                        "null"
                                                    ]
                                                },
                                                {
                                                    "name": "conservation",
                                                    "type": [
                                                        "string",
                                                        "null"
                                                    ]
                                                },
                                                {
                                                    "name": "labelInformation",
                                                    "type": [
                                                        "string",
                                                        "null"
                                                    ]
                                                },
                                                {
                                                    "name": "preparationInstructions",
                                                    "type": [
                                                        "string",
                                                        "null"
                                                    ]
                                                },
                                                {
                                                    "name": "nutritionalClaim",
                                                    "type": [
                                                        "string",
                                                        "null"
                                                    ]
                                                },
                                                {
                                                    "name": "weight",
                                                    "type": [
                                                        "string",
                                                        "null"
                                                    ]
                                                },
                                                {
                                                    "name": "grossWeight",
                                                    "type": [
                                                        "string",
                                                        "null"
                                                    ]
                                                },
                                                {
                                                    "name": "netContent",
                                                    "type": [
                                                        "string",
                                                        "null"
                                                    ]
                                                },
                                                {
                                                    "name": "widthUnitOfMeasure",
                                                    "type": [
                                                        "string",
                                                        "null"
                                                    ]
                                                },
                                                {
                                                    "name": "heightUnitOfMeasure",
                                                    "type": [
                                                        "string",
                                                        "null"
                                                    ]
                                                },
                                                {
                                                    "name": "piece",
                                                    "type": [
                                                        "string",
                                                        "null"
                                                    ]
                                                },
                                                {
                                                    "name": "consumerUnit",
                                                    "type": [
                                                        "string",
                                                        "null"
                                                    ]
                                                },
                                                {
                                                    "name": "packaging",
                                                    "type": [
                                                        "string",
                                                        "null"
                                                    ]
                                                },
                                                {
                                                    "name": "mainAttr",
                                                    "type": [
                                                        "string",
                                                        "null"
                                                    ]
                                                },
                                                {
                                                    "name": "nutritional",
                                                    "type": {
                                                        "name": "nutritionals",
                                                        "type": "record",
                                                        "fields": [
                                                            {
                                                                "name": "nutriscore",
                                                                "type": [
                                                                    "string",
                                                                    "null"
                                                                ]
                                                            },
                                                            {
                                                                "name": "nutriscorePoints",
                                                                "type": "int"
                                                            },
                                                            {
                                                                "name": "nutriscoreReported",
                                                                "type": [
                                                                    "string",
                                                                    "null"
                                                                ]
                                                            },
                                                            {
                                                                "name": "hint",
                                                                "type": [
                                                                    "string",
                                                                    "null"
                                                                ]
                                                            },
                                                            {
                                                                "name": "caloriesKj",
                                                                "type": "int"
                                                            },
                                                            {
                                                                "name": "caloriesKcal",
                                                                "type": "int"
                                                            },
                                                            {
                                                                "name": "fat",
                                                                "type": "int"
                                                            },
                                                            {
                                                                "name": "saturatedFat",
                                                                "type": "int"
                                                            },
                                                            {
                                                                "name": "glucids",
                                                                "type": "int"
                                                            },
                                                            {
                                                                "name": "sugar",
                                                                "type": "int"
                                                            },
                                                            {
                                                                "name": "fiber",
                                                                "type": "int"
                                                            },
                                                            {
                                                                "name": "proteins",
                                                                "type": "int"
                                                            },
                                                            {
                                                                "name": "salt",
                                                                "type": "int"
                                                            }
                                                        ]
                                                    }
                                                },
                                                {
                                                    "name": "productSupport",
                                                    "type": [
                                                        "string",
                                                        "null"
                                                    ]
                                                },
                                                {
                                                    "name": "flavor",
                                                    "type": {
                                                        "type": "array",
                                                        "items": "string",
                                                        "default": []
                                                    }
                                                },
                                                {
                                                    "name": "origin",
                                                    "type": [
                                                        "string",
                                                        "null"
                                                    ]
                                                },
                                                {
                                                    "name": "ventaCRF",
                                                    "type": [
                                                        "string",
                                                        "null"
                                                    ]
                                                },
                                                {
                                                    "name": "allergens",
                                                    "type": {
                                                        "type": "array",
                                                        "items": {
                                                            "name": "allergen",
                                                            "type": "record",
                                                            "fields": [
                                                                {
                                                                    "name": "lc",
                                                                    "type": "string"
                                                                },
                                                                {
                                                                    "name": "name",
                                                                    "type": "string"
                                                                },
                                                                {
                                                                    "name": "value",
                                                                    "type": "string"
                                                                }
                                                            ]
                                                        },
                                                        "default": []
                                                    }
                                                },
                                                {
                                                    "name": "badges",
                                                    "type": {
                                                        "type": "array",
                                                        "items": {
                                                            "name": "badge",
                                                            "type": "record",
                                                            "fields": [
                                                                {
                                                                    "name": "value",
                                                                    "type": "string"
                                                                }
                                                            ]
                                                        },
                                                        "default": []
                                                    }
                                                },
                                                {
                                                    "name": "brands",
                                                    "type": {
                                                        "type": "array",
                                                        "items": {
                                                            "name": "brand",
                                                            "type": "record",
                                                            "fields": [
                                                                {
                                                                    "name": "otherNames",
                                                                    "type": {
                                                                        "type": "array",
                                                                        "items": "string",
                                                                        "default": []
                                                                    }
                                                                },
                                                                {
                                                                    "name": "image",
                                                                    "type": [
                                                                        "string",
                                                                        "null"
                                                                    ]
                                                                },
                                                                {
                                                                    "name": "imageBanner",
                                                                    "type": [
                                                                        "string",
                                                                        "null"
                                                                    ]
                                                                },
                                                                {
                                                                    "name": "value",
                                                                    "type": "string"
                                                                },
                                                                {
                                                                    "name": "id",
                                                                    "type": "string"
                                                                }
                                                            ]
                                                        },
                                                        "default": []
                                                    }
                                                },
                                                {
                                                    "name": "images",
                                                    "type": {
                                                        "type": "array",
                                                        "items": {
                                                            "name": "image",
                                                            "type": "record",
                                                            "fields": [
                                                                {
                                                                    "name": "id",
                                                                    "type": [
                                                                        "string",
                                                                        "null"
                                                                    ]
                                                                },
                                                                {
                                                                    "name": "title",
                                                                    "type": [
                                                                        "string",
                                                                        "null"
                                                                    ]
                                                                },
                                                                {
                                                                    "name": "quality",
                                                                    "type": [
                                                                        "float",
                                                                        "null"
                                                                    ]
                                                                },
                                                                {
                                                                    "name": "type",
                                                                    "type": [
                                                                        "string",
                                                                        "null"
                                                                    ]
                                                                },
                                                                {
                                                                    "name": "value",
                                                                    "type": [
                                                                        "string",
                                                                        "null"
                                                                    ]
                                                                },
                                                                {
                                                                    "name": "comment",
                                                                    "type": [
                                                                        "string",
                                                                        "null"
                                                                    ]
                                                                },
                                                                {
                                                                    "name": "width",
                                                                    "type": [
                                                                        "int",
                                                                        "null"
                                                                    ]
                                                                },
                                                                {
                                                                    "name": "height",
                                                                    "type": [
                                                                        "int",
                                                                        "null"
                                                                    ]
                                                                },
                                                                {
                                                                    "name": "updated",
                                                                    "type": [
                                                                        "string",
                                                                        {
                                                                            "type": "int",
                                                                            "logicalType": "date"
                                                                        }
                                                                    ]
                                                                },
                                                                {
                                                                    "name": "date",
                                                                    "type": [
                                                                        "string",
                                                                        {
                                                                            "type": "int",
                                                                            "logicalType": "date"
                                                                        }
                                                                    ]
                                                                }
                                                            ]
                                                        },
                                                        "default": []
                                                    }
                                                },
                                                {
                                                    "name": "url",
                                                    "type": {
                                                        "type": "array",
                                                        "items": {
                                                            "name": "url",
                                                            "type": "record",
                                                            "fields": [
                                                                {
                                                                    "name": "value",
                                                                    "type": "string"
                                                                }
                                                            ]
                                                        },
                                                        "default": []
                                                    }
                                                },
                                                {
                                                    "name": "categories",
                                                    "type": {
                                                        "type": "array",
                                                        "items": {
                                                            "name": "category",
                                                            "type": "record",
                                                            "fields": [
                                                                {
                                                                    "name": "value",
                                                                    "type": "string"
                                                                },
                                                                {
                                                                    "name": "categoryId",
                                                                    "type": [
                                                                        "string",
                                                                        "null"
                                                                    ]
                                                                }
                                                            ]
                                                        },
                                                        "default": []
                                                    }
                                                },
                                                {
                                                    "name": "prices",
                                                    "type": {
                                                        "type": "array",
                                                        "items": {
                                                            "name": "price",
                                                            "type": "record",
                                                            "fields": [
                                                                {
                                                                    "name": "wholePrice",
                                                                    "type": [
                                                                        "string",
                                                                        "int",
                                                                        "null"
                                                                    ]
                                                                },
                                                                {
                                                                    "name": "currency",
                                                                    "type": [
                                                                        "string",
                                                                        "null"
                                                                    ]
                                                                },
                                                                {
                                                                    "name": "priceUnit",
                                                                    "type": [
                                                                        "string",
                                                                        "null",
                                                                        "int"
                                                                    ]
                                                                },
                                                                {
                                                                    "name": "date",
                                                                    "type": [
                                                                        "string",
                                                                        "null",
                                                                        {
                                                                            "type": "int",
                                                                            "logicalType": "date"
                                                                        }
                                                                    ]
                                                                }
                                                            ]
                                                        },
                                                        "default": []
                                                    }
                                                },
                                                {
                                                    "name": "hazardStatements",
                                                    "type": {
                                                        "type": "array",
                                                        "items": "string",
                                                        "default": []
                                                    }
                                                },
                                                {
                                                    "name": "width",
                                                    "type": [
                                                        "int",
                                                        "null"
                                                    ]
                                                },
                                                {
                                                    "name": "height",
                                                    "type": [
                                                        "int",
                                                        "null"
                                                    ]
                                                },
                                                {
                                                    "name": "productId",
                                                    "type": [
                                                        "string",
                                                        "null"
                                                    ]
                                                }
                                            ]
                                        }
                                    }
                                ]
                            },
                            "default": []
                        }
                    },
                    {
                        "name": "_schema",
                        "type": [
                            "int",
                            "string"
                        ]
                    },
                    {
                        "name": "updated",
                        "type": [
                            "string",
                            {
                                "logicalType": "date",
                                "type": "int"
                            }
                        ]
                    }
                ]
            }
        }
    ]
}
